FFFFFFFFFFFFFFFFFFFFFFFFFF
F00000000000FF00000000000F
F0FFFF0FFFF0FF0FFFF0FFFF0F
F0FFFF0FFFF0FF0FFFF0FFFF0F
F0FFFF0FFFF0FF0FFFF0FFFF0F
F000000000000000000000000F
F0FFFF0F0FFFFFFFF0F0FFFF0F
F0FFFF0F0FFFFFFFF0F0FFFF0F
F000000F0000FF0000F000000F
FFFFFF0FFFF0FF0FFFF0FFFFFF
FFFFFF0FF00000000FF0FFFFFF
FFFFFF0FF0FFGGFF0FF0FFFFFF
0000000000F0000F0000000000
FFFFFF0FF0FFFFFF0FF0FFFFFF
F00000000000FF00000000000F
F0FFFF0FFFF0FF0FFFF0FFFF0F
F0FFFF0FFFF0FF0FFFF0FFFF0F
F000FF00000000000000FF000F
FFF0FF0F0FFFFFFFF0F0FF0FFF
FFF0FF0F0FFFFFFFF0F0FF0FFF
F000000F0000FF0000F000000F
F0FFFFFFFFF0FF0FFFFFFFFF0F
F0FFFFFFFFF0FF0FFFFFFFFF0F
00000000000000000000000000
FFFFFFFFFFFFFFFFFFFFFFFFFF